{
  "studyBooks": [
    {
      "id": "1",
      "language": "javascript",
      "question": "console.log(\"Hello World\");",
      "explanation": "Basic console logging in JavaScript",
      "createdAt": "2024-01-01T00:00:00Z",
      "updatedAt": "2024-01-01T00:00:00Z"
    },
    {
      "id": "2",
      "language": "python",
      "question": "print(\"Hello World\")",
      "explanation": "Basic printing in Python",
      "createdAt": "2024-01-02T00:00:00Z",
      "updatedAt": "2024-01-02T00:00:00Z"
    },
    {
      "id": "3",
      "language": "java",
      "question": "System.out.println(\"Hello World\");",
      "explanation": "Basic output in Java",
      "createdAt": "2024-01-03T00:00:00Z",
      "updatedAt": "2024-01-03T00:00:00Z"
    }
  ],
  "paginatedResponse": {
    "content": [
      {
        "id": "1",
        "language": "javascript",
        "question": "console.log(\"Hello World\");",
        "explanation": "Basic console logging in JavaScript"
      },
      {
        "id": "2",
        "language": "python",
        "question": "print(\"Hello World\")",
        "explanation": "Basic printing in Python"
      }
    ],
    "totalElements": 25,
    "totalPages": 3,
    "number": 0,
    "size": 10
  },
  "searchResults": {
    "content": [
      {
        "id": "1",
        "language": "javascript",
        "question": "console.log(\"Search Result\");",
        "explanation": "Search result explanation"
      }
    ],
    "totalElements": 1,
    "totalPages": 1,
    "number": 0,
    "size": 10
  },
  "emptyResponse": {
    "content": [],
    "totalElements": 0,
    "totalPages": 0,
    "number": 0,
    "size": 10
  }
}